…
You also have cases where it’s slower to `sf::st_make_valid`, let’s use
this data from a [closed
issue](https://github.com/r-spatial/sf/issues/1280) in the `sf` R
package.

``` r
## need vsicurl
(agb <- read_sf("/vsicurl/http://files.hawaii.gov/dbedt/op/gis/data/2015AgBaseline.shp.zip"))
#> Simple feature collection with 5024 features and 6 fields
#> geometry type:  MULTIPOLYGON
#> dimension:      XY
#> bbox:           xmin: 419564.3 ymin: 2095890 xmax: 938457.6 ymax: 2457686
#> projected CRS:  NAD83 / UTM zone 4N
#> # A tibble: 5,024 x 7
#>    OBJECTID CropCatego Island Acrage Shape_Leng Shape_Area
#>       <dbl> <chr>      <chr>   <dbl>      <dbl>      <dbl>
#>  1     4529 Commercia… Kauai  2.73e2      6301.   1104891.
#>  2     4530 Coffee     Kauai  7.44e0      1254.     30103.
#>  3     4531 Coffee     Kauai  4.65e0       772.     18813.
#>  4     4532 Coffee     Kauai  1.13e3     16248.   4572534.
#>  5     4533 Coffee     Kauai  3.49e0       858.     14106.
#>  6     4534 Coffee     Kauai  5.21e2      7868.   2106938.
#>  7     4535 Coffee     Kauai  7.16e2     11290.   2896255.
#>  8     4536 Coffee     Kauai  1.33e2      3705.    539524.
#>  9     4537 Flowers /… Kauai  3.52e1      1871.    142623.
#> 10     4538 Coffee     Kauai  9.69e1      2930.    391962.
#> # … with 5,014 more rows, and 1 more variable:
#> #   geometry <MULTIPOLYGON [m]>
…
